"Story","Title","Result","Date","Stability","Duration (s)"
"bookshop crud api - negative tests","adding a book - bound testing","FAILURE","2022-08-11T22:47:28.754207+01:00[Europe/London]","0.0","0.73"
"bookshop crud api - negative tests","<typeOfAction> a book - bad id <typeOfId>","FAILURE","2022-08-11T22:47:29.495211+01:00[Europe/London]","0.0","9.21"
