"Story","Title","Result","Date","Stability","Duration (s)"
"bookshop crud api - negative tests","adding a book - using bad schema","ERROR","2022-08-11T22:47:25.6797494+01:00[Europe/London]","0.0","3.06"
"bookshop crud api - negative tests","<apiType> a book - id that does not exist","FAILURE","2022-08-11T22:47:38.7071884+01:00[Europe/London]","0.0","3.84"
"bookshop crud api","adding a book","SUCCESS","2022-08-11T22:47:42.5510803+01:00[Europe/London]","0.0","1.75"
"bookshop crud api","view a book","FAILURE","2022-08-11T22:47:44.3011974+01:00[Europe/London]","0.0","1.76"
"bookshop crud api","update a book","FAILURE","2022-08-11T22:47:46.0701893+01:00[Europe/London]","0.0","1.22"
