"Story","Title","Result","Date","Stability","Duration (s)"
"bookshop crud api - negative tests","adding a book - bound testing","FAILURE","2022-08-11T22:47:28.754207+01:00[Europe/London]","0.0","0.73"
"bookshop crud api - negative tests","<typeOfAction> a book - bad id <typeOfId>","FAILURE","2022-08-11T22:47:29.495211+01:00[Europe/London]","0.0","9.21"
"bookshop crud api - negative tests","<apiType> a book - id that does not exist","FAILURE","2022-08-11T22:47:38.7071884+01:00[Europe/London]","0.0","3.84"
"bookshop crud api","view a book","FAILURE","2022-08-11T22:47:44.3011974+01:00[Europe/London]","0.0","1.76"
"bookshop crud api","update a book","FAILURE","2022-08-11T22:47:46.0701893+01:00[Europe/London]","0.0","1.22"
"bookshop crud api","delete a book","FAILURE","2022-08-11T22:47:47.2911887+01:00[Europe/London]","0.0","1.22"
"bookshop crud api","view all books","FAILURE","2022-08-11T22:47:48.51619+01:00[Europe/London]","0.0","12.99"
